4.1 AssociatedPress Dataset | AssoitedPress Dataset
…
summary(terms)

   Length     Class      Mode 
    10473 character character 

head(terms)

[1] "aaron"      "abandon"    "abandoned"  "abandoning"
[5] "abbott"     "abboud"    

ap_td <- tidy(AssociatedPress)
ap_td

# A tibble: 302,031 x 3
   document term       count
      <int> <chr>      <dbl>
 1        1 adding         1
 2        1 adult          2
 3        1 ago            1
 4        1 alcohol        1
 5        1 allegedly      1
 6        1 allen          1
 7        1 apparently     2
 8        1 appeared       1
 9        1 arrested       1
10        1 assault        1
# … with 302,021 more rows
…
# Select model with k = 2
ap_lda_models[[1]]

A LDA_VEM topic model with 2 topics.

4.1.4 Word-topic-probabilities for k = 2

# Word-Topic-probabilities
ap_topics <- tidy(ap_lda_models[[1]], matrix = "beta")
ap_topics

# A tibble: 20,946 x 3
   topic term           beta
   <int> <chr>         <dbl>
 1     1 aaron      3.73e- 5
 2     2 aaron      6.95e- 5
 3     1 abandon    5.26e- 5
 4     2 abandon    1.66e-11
 5     1 abandoned  7.50e- 5
 6     2 abandoned  2.19e- 4
 7     1 abandoning 4.54e-97
 8     2 abandoning 2.69e- 5
 9     1 abbott     4.38e-95
10     2 abbott     5.38e- 5
# … with 20,936 more rows
…
### Document-topic probabilities

ap_documents <- tidy(ap_lda_models[[1]], matrix = "gamma")
ap_documents

# A tibble: 800 x 3
   document topic    gamma
      <int> <int>    <dbl>
 1        1     1 0.449   
 2        2     1 0.000623
 3        3     1 0.136   
 4        4     1 1.00    
 5        5     1 0.000978
 6        6     1 1.00    
 7        7     1 0.000449
 8        8     1 0.999   
 9        9     1 0.000361
10       10     1 1.00    
# … with 790 more rows
…
4.1.7 Word-topic-probabilities for k = 20

# Word-Topic-probabilities
ap_topics_20 <- tidy(ap_lda_models[[4]], matrix = "beta")
ap_topics_20

# A tibble: 209,460 x 3
   topic term       beta
   <int> <chr>     <dbl>
 1     1 aaron 5.31e-297
 2     2 aaron 2.43e-  4
 3     3 aaron 5.51e-300
 4     4 aaron 3.81e-296
 5     5 aaron 1.02e-298
 6     6 aaron 4.36e-298
 7     7 aaron 7.81e-299
 8     8 aaron 6.41e-291
 9     9 aaron 1.29e-300
10    10 aaron 1.07e-296
# … with 209,450 more rows
…
