4.1 AssociatedPress Dataset | Other Case Study
…
terms <- Terms(AssociatedPress)

summary(terms)

   Length     Class      Mode 
    10473 character character 

head(terms)

[1] "aaron"      "abandon"    "abandoned"  "abandoning" "abbott"     "abboud"    

ap_td <- tidy(AssociatedPress)
ap_td

# A tibble: 302,031 x 3
   document term       count
      <int> <chr>      <dbl>
 1        1 adding         1
 2        1 adult          2
 3        1 ago            1
 4        1 alcohol        1
 5        1 allegedly      1
 6        1 allen          1
 7        1 apparently     2
 8        1 appeared       1
 9        1 arrested       1
10        1 assault        1
# … with 302,021 more rows
…
# Select model with k = 2
ap_lda_models[[1]]

A LDA_VEM topic model with 2 topics.

4.1.4 Word-topic-probabilities for k = 2

# Word-Topic-probabilities
ap_topics <- tidy(ap_lda_models[[1]], matrix = "beta")
ap_topics

# A tibble: 20,946 x 3
   topic term           beta
   <int> <chr>         <dbl>
 1     1 aaron      5.19e- 5
 2     2 aaron      2.65e- 5
 3     1 abandon    2.60e- 5
 4     2 abandon    5.94e-14
 5     1 abandoned  8.33e- 5
 6     2 abandoned  2.07e- 4
 7     1 abandoning 3.72e-44
 8     2 abandoning 3.72e-44
 9     1 abbott     1.92e-17
10     2 abbott     7.96e- 5
# … with 20,936 more rows
…
### Document-topic probabilities

ap_documents <- tidy(ap_lda_models[[1]], matrix = "gamma")
ap_documents

# A tibble: 800 x 3
   document topic    gamma
      <int> <int>    <dbl>
 1        1     1 0.727   
 2        2     1 0.000647
 3        3     1 0.000480
 4        4     1 0.00182 
 5        5     1 1.00    
 6        6     1 1.00    
 7        7     1 0.000699
 8        8     1 0.00102 
 9        9     1 0.453   
10       10     1 0.999   
# … with 790 more rows
…
4.1.7 Word-topic-probabilities for k = 20

# Word-Topic-probabilities
ap_topics_20 <- tidy(ap_lda_models[[4]], matrix = "beta")
ap_topics_20

# A tibble: 209,460 x 3
   topic term       beta
   <int> <chr>     <dbl>
 1     1 aaron 5.77e-192
 2     2 aaron 1.83e-121
 3     3 aaron 9.53e-192
 4     4 aaron 6.00e-157
 5     5 aaron 3.07e-191
 6     6 aaron 3.73e-157
 7     7 aaron 1.22e-191
 8     8 aaron 1.49e-191
 9     9 aaron 1.17e-191
10    10 aaron 8.71e-192
# … with 209,450 more rows
…
