3.3 AssociatedPress Dataset | Other Case Study
…
terms <- Terms(AssociatedPress)

summary(terms)

   Length     Class      Mode 
    10473 character character 

head(terms)

[1] "aaron"      "abandon"    "abandoned"  "abandoning" "abbott"     "abboud"    

ap_td <- tidy(AssociatedPress)
ap_td

# A tibble: 302,031 x 3
   document term       count
      <int> <chr>      <dbl>
 1        1 adding         1
 2        1 adult          2
 3        1 ago            1
 4        1 alcohol        1
 5        1 allegedly      1
 6        1 allen          1
 7        1 apparently     2
 8        1 appeared       1
 9        1 arrested       1
10        1 assault        1
# … with 302,021 more rows
…
# Select model with k = 2
ap_lda_models[[1]]

A LDA_VEM topic model with 2 topics.

3.3.4 Word-topic-probabilities for k = 2

# Word-Topic-probabilities
ap_topics <- tidy(ap_lda_models[[1]], matrix = "beta")
ap_topics

# A tibble: 20,946 x 3
   topic term           beta
   <int> <chr>         <dbl>
 1     1 aaron      5.20e- 5
 2     2 aaron      5.13e- 5
 3     1 abandon    2.54e- 5
 4     2 abandon    6.55e- 7
 5     1 abandoned  4.57e- 5
 6     2 abandoned  2.37e- 4
 7     1 abandoning 2.17e-65
 8     2 abandoning 2.57e- 5
 9     1 abbott     3.16e- 9
10     2 abbott     7.70e- 5
# … with 20,936 more rows
…
### Document-topic probabilities

ap_documents <- tidy(ap_lda_models[[1]], matrix = "gamma")
ap_documents

# A tibble: 800 x 3
   document topic    gamma
      <int> <int>    <dbl>
 1        1     1 0.999   
 2        2     1 0.00174 
 3        3     1 0.944   
 4        4     1 0.489   
 5        5     1 1.00    
 6        6     1 0.674   
 7        7     1 0.000385
 8        8     1 0.000393
 9        9     1 0.493   
10       10     1 0.998   
# … with 790 more rows
…
3.3.7 Word-topic-probabilities for k = 20

# Word-Topic-probabilities
ap_topics_20 <- tidy(ap_lda_models[[4]], matrix = "beta")
ap_topics_20

# A tibble: 209,460 x 3
   topic term       beta
   <int> <chr>     <dbl>
 1     1 aaron 6.44e-189
 2     2 aaron 2.13e-189
 3     3 aaron 2.97e-317
 4     4 aaron 1.55e-  9
 5     5 aaron 2.44e-189
 6     6 aaron 8.39e-189
 7     7 aaron 2.40e-189
 8     8 aaron 4.30e-120
 9     9 aaron 2.37e-189
10    10 aaron 1.65e-189
# … with 209,450 more rows
…
